^D:\VISUAL STUDIO 2013\QUAN_LY_VT_DETAI2\QUAN_LY_VT_DETAI2\DEBUG\MAIN.OBJ
D:\VISUAL STUDIO 2013\QUAN_LY_VT_DETAI2\DEBUG\QUAN_LY_VT_DETAI2.ILK
D:\VISUAL STUDIO 2013\QUAN_LY_VT_DETAI2\DEBUG\QUAN_LY_VT_DETAI2.EXE
D:\VISUAL STUDIO 2013\QUAN_LY_VT_DETAI2\DEBUG\QUAN_LY_VT_DETAI2.PDB
